PROFILEID=I%2dK4E00TPHJ1NH&PROFILESTATUS=ActiveProfile&TIMESTAMP=2016%2d03%2d25T08%3a46%3a36Z&CORRELATIONID=7d52a71e262a5&ACK=Success&VERSION=112%2e0&BUILD=20986399Array
(
    [PROFILEID] => I-K4E00TPHJ1NH
    [PROFILESTATUS] => ActiveProfile
    [TIMESTAMP] => 2016-03-25T08:46:36Z
    [CORRELATIONID] => 7d52a71e262a5
    [ACK] => Success
    [VERSION] => 112.0
    [BUILD] => 20986399
)
