USER=*****&PWD=*****&VERSION=112.0&BUTTONSOURCE=xTradeHomes&SIGNATURE=*****&METHOD=DoDirectPayment&PAYMENTACTION=Authorization&IPADDRESS=127.0.0.1&RETURNFMFDETAILS=0&CREDITCARDTYPE=Visa&ACCT=*****7357&EXPDATE=112020&CVV2=*****&EMAIL=rizki.aprilian@aol.com&COUNTRYCODE=CA&BUSINESS=Del Farm&FIRSTNAME=Jose&LASTNAME=Silvia&STREET=Wyoming&CITY=Wyoming&STATE=Ontario&ZIP=N0N 1T0&PHONENUM=519-845-2170&AMT=56.44&CURRENCYCODE=CAD&ITEMAMT=49.95&TAXAMT=6.49&DESC=Auth Test&CUSTOM=xTH13881&NOTIFYURL=http://xtradelisting.dv/ipnArray
(
    [USER] => *****
    [PWD] => *****
    [VERSION] => 112.0
    [BUTTONSOURCE] => xTradeHomes
    [SIGNATURE] => *****
    [METHOD] => DoDirectPayment
    [PAYMENTACTION] => Authorization
    [IPADDRESS] => 127.0.0.1
    [RETURNFMFDETAILS] => 0
    [CREDITCARDTYPE] => Visa
    [ACCT] => *****7357
    [EXPDATE] => 112020
    [CVV2] => *****
    [EMAIL] => rizki.aprilian@aol.com
    [COUNTRYCODE] => CA
    [BUSINESS] => Del Farm
    [FIRSTNAME] => Jose
    [LASTNAME] => Silvia
    [STREET] => Wyoming
    [CITY] => Wyoming
    [STATE] => Ontario
    [ZIP] => N0N 1T0
    [PHONENUM] => 519-845-2170
    [AMT] => 56.44
    [CURRENCYCODE] => CAD
    [ITEMAMT] => 49.95
    [TAXAMT] => 6.49
    [DESC] => Auth Test
    [CUSTOM] => xTH13881
    [NOTIFYURL] => http://xtradelisting.dv/ipn
)
