PROFILEID=I%2dG28M7AYLCAAM&PROFILESTATUS=ActiveProfile&TIMESTAMP=2016%2d03%2d25T09%3a26%3a08Z&CORRELATIONID=9f7537a2a886d&ACK=Success&VERSION=112%2e0&BUILD=20986399Array
(
    [PROFILEID] => I-G28M7AYLCAAM
    [PROFILESTATUS] => ActiveProfile
    [TIMESTAMP] => 2016-03-25T09:26:08Z
    [CORRELATIONID] => 9f7537a2a886d
    [ACK] => Success
    [VERSION] => 112.0
    [BUILD] => 20986399
)
