TIMESTAMP=2016%2d03%2d31T09%3a14%3a22Z&CORRELATIONID=3f616d818f95d&ACK=Success&VERSION=112%2e0&BUILD=000000&AMT=33%2e84&CURRENCYCODE=CAD&AVSCODE=X&CVV2MATCH=M&TRANSACTIONID=3SS35742Y9313734RArray
(
    [TIMESTAMP] => 2016-03-31T09:14:22Z
    [CORRELATIONID] => 3f616d818f95d
    [ACK] => Success
    [VERSION] => 112.0
    [BUILD] => 000000
    [AMT] => 33.84
    [CURRENCYCODE] => CAD
    [AVSCODE] => X
    [CVV2MATCH] => M
    [TRANSACTIONID] => 3SS35742Y9313734R
)
