PROFILEID=I%2dEHD6XT5FGTTR&STATUS=Active&AUTOBILLOUTAMT=NoAutoBill&DESC=xTh_Basic_Membership&MAXFAILEDPAYMENTS=0&SUBSCRIBERNAME=Fake%20Broker&PROFILESTARTDATE=2016%2d01%2d26T20%3a15%3a57Z&PROFILEREFERENCE=bxTH58385&NEXTBILLINGDATE=2016%2d04%2d26T10%3a00%3a00Z&NUMCYCLESCOMPLETED=3&NUMCYCLESREMAINING=18446744073709551613&OUTSTANDINGBALANCE=0%2e00&FAILEDPAYMENTCOUNT=0&LASTPAYMENTDATE=2016%2d03%2d30T23%3a41%3a35Z&LASTPAYMENTAMT=52%2e45&TRIALAMTPAID=0%2e00&REGULARAMTPAID=157%2e35&AGGREGATEAMT=157%2e35&AGGREGATEOPTIONALAMT=0%2e00&FINALPAYMENTDUEDATE=1970%2d01%2d01T00%3a00%3a00Z&TIMESTAMP=2016%2d03%2d31T06%3a54%3a24Z&CORRELATIONID=e16a9808e7e6a&ACK=Success&VERSION=112%2e0&BUILD=000000&BILLINGPERIOD=Month&BILLINGFREQUENCY=1&TOTALBILLINGCYCLES=0&CURRENCYCODE=CAD&AMT=49%2e95&SHIPPINGAMT=0%2e00&TAXAMT=2%2e50&REGULARBILLINGPERIOD=Month&REGULARBILLINGFREQUENCY=1&REGULARTOTALBILLINGCYCLES=0&REGULARCURRENCYCODE=CAD&REGULARAMT=49%2e95&REGULARSHIPPINGAMT=0%2e00&REGULARTAXAMT=2%2e50&ACCT=9538&CREDITCARDTYPE=Visa&EXPDATE=112019&EMAIL=dalifan%2eteresa%2b2%40gmail%2ecom&FIRSTNAME=Jack&LASTNAME=Frost&ADDRESSOWNER=PayPal&ADDRESSSTATUS=Unconfirmed&PAYERSTATUS=unverifiedArray
(
    [PROFILEID] => I-EHD6XT5FGTTR
    [STATUS] => Active
    [AUTOBILLOUTAMT] => NoAutoBill
    [DESC] => xTh_Basic_Membership
    [MAXFAILEDPAYMENTS] => 0
    [SUBSCRIBERNAME] => Fake Broker
    [PROFILESTARTDATE] => 2016-01-26T20:15:57Z
    [PROFILEREFERENCE] => bxTH58385
    [NEXTBILLINGDATE] => 2016-04-26T10:00:00Z
    [NUMCYCLESCOMPLETED] => 3
    [NUMCYCLESREMAINING] => 18446744073709551613
    [OUTSTANDINGBALANCE] => 0.00
    [FAILEDPAYMENTCOUNT] => 0
    [LASTPAYMENTDATE] => 2016-03-30T23:41:35Z
    [LASTPAYMENTAMT] => 52.45
    [TRIALAMTPAID] => 0.00
    [REGULARAMTPAID] => 157.35
    [AGGREGATEAMT] => 157.35
    [AGGREGATEOPTIONALAMT] => 0.00
    [FINALPAYMENTDUEDATE] => 1970-01-01T00:00:00Z
    [TIMESTAMP] => 2016-03-31T06:54:24Z
    [CORRELATIONID] => e16a9808e7e6a
    [ACK] => Success
    [VERSION] => 112.0
    [BUILD] => 000000
    [BILLINGPERIOD] => Month
    [BILLINGFREQUENCY] => 1
    [TOTALBILLINGCYCLES] => 0
    [CURRENCYCODE] => CAD
    [AMT] => 49.95
    [SHIPPINGAMT] => 0.00
    [TAXAMT] => 2.50
    [REGULARBILLINGPERIOD] => Month
    [REGULARBILLINGFREQUENCY] => 1
    [REGULARTOTALBILLINGCYCLES] => 0
    [REGULARCURRENCYCODE] => CAD
    [REGULARAMT] => 49.95
    [REGULARSHIPPINGAMT] => 0.00
    [REGULARTAXAMT] => 2.50
    [ACCT] => 9538
    [CREDITCARDTYPE] => Visa
    [EXPDATE] => 112019
    [EMAIL] => dalifan.teresa+2@gmail.com
    [FIRSTNAME] => Jack
    [LASTNAME] => Frost
    [ADDRESSOWNER] => PayPal
    [ADDRESSSTATUS] => Unconfirmed
    [PAYERSTATUS] => unverified
)
