PROFILEID=I%2dWNL7D9WGHGG1&STATUS=Active&AUTOBILLOUTAMT=NoAutoBill&DESC=xTh_Basic_Membership&MAXFAILEDPAYMENTS=0&SUBSCRIBERNAME=Vendor%20Contact&PROFILESTARTDATE=2016%2d03%2d14T18%3a11%3a46Z&PROFILEREFERENCE=vxTH37613&NEXTBILLINGDATE=2016%2d04%2d14T10%3a00%3a00Z&NUMCYCLESCOMPLETED=1&NUMCYCLESREMAINING=18446744073709551615&OUTSTANDINGBALANCE=0%2e00&FAILEDPAYMENTCOUNT=0&LASTPAYMENTDATE=2016%2d03%2d14T23%3a35%3a15Z&LASTPAYMENTAMT=47%2e15&TRIALAMTPAID=0%2e00&REGULARAMTPAID=47%2e15&AGGREGATEAMT=47%2e15&AGGREGATEOPTIONALAMT=0%2e00&FINALPAYMENTDUEDATE=1970%2d01%2d01T00%3a00%3a00Z&TIMESTAMP=2016%2d03%2d31T09%3a03%3a10Z&CORRELATIONID=4f5220e8aad40&ACK=Success&VERSION=112%2e0&BUILD=000000&BILLINGPERIOD=Month&BILLINGFREQUENCY=1&TOTALBILLINGCYCLES=0&CURRENCYCODE=CAD&AMT=44%2e90&SHIPPINGAMT=0%2e00&TAXAMT=2%2e25&REGULARBILLINGPERIOD=Month&REGULARBILLINGFREQUENCY=1&REGULARTOTALBILLINGCYCLES=0&REGULARCURRENCYCODE=CAD&REGULARAMT=44%2e90&REGULARSHIPPINGAMT=0%2e00&REGULARTAXAMT=2%2e25&ACCT=7357&CREDITCARDTYPE=Visa&EXPDATE=112020&EMAIL=dalifan%2eteresa%2b16%40gmail%2ecom&FIRSTNAME=Jose&LASTNAME=Silvia&STREET=456%20Tester%20Lane&CITY=No%20City%20Provided&STATE=XX&ZIP=V0V%202V0&COUNTRYCODE=CA&COUNTRY=Canada&ADDRESSOWNER=PayPal&ADDRESSSTATUS=Unconfirmed&PAYERSTATUS=unverifiedArray
(
    [PROFILEID] => I-WNL7D9WGHGG1
    [STATUS] => Active
    [AUTOBILLOUTAMT] => NoAutoBill
    [DESC] => xTh_Basic_Membership
    [MAXFAILEDPAYMENTS] => 0
    [SUBSCRIBERNAME] => Vendor Contact
    [PROFILESTARTDATE] => 2016-03-14T18:11:46Z
    [PROFILEREFERENCE] => vxTH37613
    [NEXTBILLINGDATE] => 2016-04-14T10:00:00Z
    [NUMCYCLESCOMPLETED] => 1
    [NUMCYCLESREMAINING] => 18446744073709551615
    [OUTSTANDINGBALANCE] => 0.00
    [FAILEDPAYMENTCOUNT] => 0
    [LASTPAYMENTDATE] => 2016-03-14T23:35:15Z
    [LASTPAYMENTAMT] => 47.15
    [TRIALAMTPAID] => 0.00
    [REGULARAMTPAID] => 47.15
    [AGGREGATEAMT] => 47.15
    [AGGREGATEOPTIONALAMT] => 0.00
    [FINALPAYMENTDUEDATE] => 1970-01-01T00:00:00Z
    [TIMESTAMP] => 2016-03-31T09:03:10Z
    [CORRELATIONID] => 4f5220e8aad40
    [ACK] => Success
    [VERSION] => 112.0
    [BUILD] => 000000
    [BILLINGPERIOD] => Month
    [BILLINGFREQUENCY] => 1
    [TOTALBILLINGCYCLES] => 0
    [CURRENCYCODE] => CAD
    [AMT] => 44.90
    [SHIPPINGAMT] => 0.00
    [TAXAMT] => 2.25
    [REGULARBILLINGPERIOD] => Month
    [REGULARBILLINGFREQUENCY] => 1
    [REGULARTOTALBILLINGCYCLES] => 0
    [REGULARCURRENCYCODE] => CAD
    [REGULARAMT] => 44.90
    [REGULARSHIPPINGAMT] => 0.00
    [REGULARTAXAMT] => 2.25
    [ACCT] => 7357
    [CREDITCARDTYPE] => Visa
    [EXPDATE] => 112020
    [EMAIL] => dalifan.teresa+16@gmail.com
    [FIRSTNAME] => Jose
    [LASTNAME] => Silvia
    [STREET] => 456 Tester Lane
    [CITY] => No City Provided
    [STATE] => XX
    [ZIP] => V0V 2V0
    [COUNTRYCODE] => CA
    [COUNTRY] => Canada
    [ADDRESSOWNER] => PayPal
    [ADDRESSSTATUS] => Unconfirmed
    [PAYERSTATUS] => unverified
)
