PROFILEID=I%2dA7TDMSU2R1LY&STATUS=Active&AUTOBILLOUTAMT=NoAutoBill&DESC=xTh_Basic_Membership&MAXFAILEDPAYMENTS=0&SUBSCRIBERNAME=Vendo%20The%20Vendor&PROFILESTARTDATE=2016%2d03%2d17T20%3a02%3a39Z&PROFILEREFERENCE=vxTH63193&NEXTBILLINGDATE=2016%2d04%2d17T10%3a00%3a00Z&NUMCYCLESCOMPLETED=1&NUMCYCLESREMAINING=18446744073709551615&OUTSTANDINGBALANCE=0%2e00&FAILEDPAYMENTCOUNT=0&LASTPAYMENTDATE=2016%2d03%2d18T04%3a24%3a20Z&LASTPAYMENTAMT=47%2e15&TRIALAMTPAID=0%2e00&REGULARAMTPAID=47%2e15&AGGREGATEAMT=47%2e15&AGGREGATEOPTIONALAMT=0%2e00&FINALPAYMENTDUEDATE=1970%2d01%2d01T00%3a00%3a00Z&TIMESTAMP=2016%2d03%2d31T07%3a59%3a44Z&CORRELATIONID=c8f8feb01b11a&ACK=Success&VERSION=112%2e0&BUILD=000000&BILLINGPERIOD=Month&BILLINGFREQUENCY=1&TOTALBILLINGCYCLES=0&CURRENCYCODE=CAD&AMT=44%2e90&SHIPPINGAMT=0%2e00&TAXAMT=2%2e25&REGULARBILLINGPERIOD=Month&REGULARBILLINGFREQUENCY=1&REGULARTOTALBILLINGCYCLES=0&REGULARCURRENCYCODE=CAD&REGULARAMT=44%2e90&REGULARSHIPPINGAMT=0%2e00&REGULARTAXAMT=2%2e25&ACCT=9538&CREDITCARDTYPE=Visa&EXPDATE=112019&EMAIL=dalifan%2eteresa%2b6%40gmail%2ecom&FIRSTNAME=Jack&LASTNAME=Frost&STREET=456%20First%20Ave&CITY=No%20City%20Provided&STATE=XX&ZIP=V0X%200X0&COUNTRYCODE=CA&COUNTRY=Canada&ADDRESSOWNER=PayPal&ADDRESSSTATUS=Unconfirmed&PAYERSTATUS=unverifiedArray
(
    [PROFILEID] => I-A7TDMSU2R1LY
    [STATUS] => Active
    [AUTOBILLOUTAMT] => NoAutoBill
    [DESC] => xTh_Basic_Membership
    [MAXFAILEDPAYMENTS] => 0
    [SUBSCRIBERNAME] => Vendo The Vendor
    [PROFILESTARTDATE] => 2016-03-17T20:02:39Z
    [PROFILEREFERENCE] => vxTH63193
    [NEXTBILLINGDATE] => 2016-04-17T10:00:00Z
    [NUMCYCLESCOMPLETED] => 1
    [NUMCYCLESREMAINING] => 18446744073709551615
    [OUTSTANDINGBALANCE] => 0.00
    [FAILEDPAYMENTCOUNT] => 0
    [LASTPAYMENTDATE] => 2016-03-18T04:24:20Z
    [LASTPAYMENTAMT] => 47.15
    [TRIALAMTPAID] => 0.00
    [REGULARAMTPAID] => 47.15
    [AGGREGATEAMT] => 47.15
    [AGGREGATEOPTIONALAMT] => 0.00
    [FINALPAYMENTDUEDATE] => 1970-01-01T00:00:00Z
    [TIMESTAMP] => 2016-03-31T07:59:44Z
    [CORRELATIONID] => c8f8feb01b11a
    [ACK] => Success
    [VERSION] => 112.0
    [BUILD] => 000000
    [BILLINGPERIOD] => Month
    [BILLINGFREQUENCY] => 1
    [TOTALBILLINGCYCLES] => 0
    [CURRENCYCODE] => CAD
    [AMT] => 44.90
    [SHIPPINGAMT] => 0.00
    [TAXAMT] => 2.25
    [REGULARBILLINGPERIOD] => Month
    [REGULARBILLINGFREQUENCY] => 1
    [REGULARTOTALBILLINGCYCLES] => 0
    [REGULARCURRENCYCODE] => CAD
    [REGULARAMT] => 44.90
    [REGULARSHIPPINGAMT] => 0.00
    [REGULARTAXAMT] => 2.25
    [ACCT] => 9538
    [CREDITCARDTYPE] => Visa
    [EXPDATE] => 112019
    [EMAIL] => dalifan.teresa+6@gmail.com
    [FIRSTNAME] => Jack
    [LASTNAME] => Frost
    [STREET] => 456 First Ave
    [CITY] => No City Provided
    [STATE] => XX
    [ZIP] => V0X 0X0
    [COUNTRYCODE] => CA
    [COUNTRY] => Canada
    [ADDRESSOWNER] => PayPal
    [ADDRESSSTATUS] => Unconfirmed
    [PAYERSTATUS] => unverified
)
