USER=*****&PWD=*****&VERSION=112.0&BUTTONSOURCE=xTradeHomes&SIGNATURE=*****&METHOD=GetRecurringPaymentsProfileDetails&PROFILEID=I-8BKSH465N3LMArray
(
    [USER] => *****
    [PWD] => *****
    [VERSION] => 112.0
    [BUTTONSOURCE] => xTradeHomes
    [SIGNATURE] => *****
    [METHOD] => GetRecurringPaymentsProfileDetails
    [PROFILEID] => I-8BKSH465N3LM
)
