PROFILEID=I%2dRD0NELSM2CTL&PROFILESTATUS=ActiveProfile&TIMESTAMP=2016%2d04%2d08T04%3a00%3a52Z&CORRELATIONID=1e8fe81937ece&ACK=Success&VERSION=112%2e0&BUILD=000000Array
(
    [PROFILEID] => I-RD0NELSM2CTL
    [PROFILESTATUS] => ActiveProfile
    [TIMESTAMP] => 2016-04-08T04:00:52Z
    [CORRELATIONID] => 1e8fe81937ece
    [ACK] => Success
    [VERSION] => 112.0
    [BUILD] => 000000
)
