PROFILEID=I%2dCDRS6XA8ELG0&PROFILESTATUS=PendingProfile&TRANSACTIONID=1B4348772B6235325&TIMESTAMP=2016%2d04%2d11T05%3a46%3a46Z&CORRELATIONID=e4f34300182a3&ACK=Success&VERSION=112%2e0&BUILD=000000Array
(
    [PROFILEID] => I-CDRS6XA8ELG0
    [PROFILESTATUS] => PendingProfile
    [TRANSACTIONID] => 1B4348772B6235325
    [TIMESTAMP] => 2016-04-11T05:46:46Z
    [CORRELATIONID] => e4f34300182a3
    [ACK] => Success
    [VERSION] => 112.0
    [BUILD] => 000000
)
