TIMESTAMP=2016%2d04%2d11T06%3a38%3a00Z&CORRELATIONID=b5c6fb2d6c7be&ACK=Failure&VERSION=112%2e0&BUILD=000000&L_ERRORCODE0=11586&L_SHORTMESSAGE0=DPRP%20is%20disabled%2e&L_LONGMESSAGE0=DPRP%20is%20disabled%20for%20this%20merchant%2e&L_SEVERITYCODE0=ErrorArray
(
    [TIMESTAMP] => 2016-04-11T06:38:00Z
    [CORRELATIONID] => b5c6fb2d6c7be
    [ACK] => Failure
    [VERSION] => 112.0
    [BUILD] => 000000
    [L_ERRORCODE0] => 11586
    [L_SHORTMESSAGE0] => DPRP is disabled.
    [L_LONGMESSAGE0] => DPRP is disabled for this merchant.
    [L_SEVERITYCODE0] => Error
)
