USER=*****&PWD=*****&VERSION=112.0&BUTTONSOURCE=xTradeHomes&SIGNATURE=*****&METHOD=DoDirectPayment&PAYMENTACTION=Authorization&IPADDRESS=127.0.0.1&RETURNFMFDETAILS=0&CREDITCARDTYPE=Visa&ACCT=*****7357&EXPDATE=112020&CVV2=*****&EMAIL=rizki.aprilian@aol.com&COUNTRYCODE=CA&BUSINESS=Pro Star Garden Management&FIRST_NAME=Brad&LAST_NAME=Roy&STREET=3961 Lake City Way&CITY=Burnaby&STATE=British Columbia&ZIP=V5A 2Z6&PHONENUM=778-867-5020&AMT=52.45&CURRENCYCODE=CAD&ITEMAMT=49.95&TAXAMT=2.5&DESC=Auth Test&CUSTOM=xTH69076Array
(
    [USER] => *****
    [PWD] => *****
    [VERSION] => 112.0
    [BUTTONSOURCE] => xTradeHomes
    [SIGNATURE] => *****
    [METHOD] => DoDirectPayment
    [PAYMENTACTION] => Authorization
    [IPADDRESS] => 127.0.0.1
    [RETURNFMFDETAILS] => 0
    [CREDITCARDTYPE] => Visa
    [ACCT] => *****7357
    [EXPDATE] => 112020
    [CVV2] => *****
    [EMAIL] => rizki.aprilian@aol.com
    [COUNTRYCODE] => CA
    [BUSINESS] => Pro Star Garden Management
    [FIRST_NAME] => Brad
    [LAST_NAME] => Roy
    [STREET] => 3961 Lake City Way
    [CITY] => Burnaby
    [STATE] => British Columbia
    [ZIP] => V5A 2Z6
    [PHONENUM] => 778-867-5020
    [AMT] => 52.45
    [CURRENCYCODE] => CAD
    [ITEMAMT] => 49.95
    [TAXAMT] => 2.5
    [DESC] => Auth Test
    [CUSTOM] => xTH69076
)
