USER=*****&PWD=*****&VERSION=112.0&BUTTONSOURCE=xTradeHomes&SIGNATURE=*****&METHOD=GetRecurringPaymentsProfileDetails&PROFILEID=I-91KKK6RCJ279Array
(
    [USER] => *****
    [PWD] => *****
    [VERSION] => 112.0
    [BUTTONSOURCE] => xTradeHomes
    [SIGNATURE] => *****
    [METHOD] => GetRecurringPaymentsProfileDetails
    [PROFILEID] => I-91KKK6RCJ279
)
