PROFILEID=I%2d91KKK6RCJ279&TIMESTAMP=2016%2d04%2d12T05%3a56%3a04Z&CORRELATIONID=fae547a941c3&ACK=Failure&VERSION=112%2e0&BUILD=000000&L_ERRORCODE0=11546&L_SHORTMESSAGE0=Denied&L_LONGMESSAGE0=Profile%20ID%20is%20not%20valid%20for%20this%20account%2e%20%20Please%20resubmit%20request%20with%20the%20correct%20profile%20ID%2e&L_SEVERITYCODE0=ErrorArray
(
    [PROFILEID] => I-91KKK6RCJ279
    [TIMESTAMP] => 2016-04-12T05:56:04Z
    [CORRELATIONID] => fae547a941c3
    [ACK] => Failure
    [VERSION] => 112.0
    [BUILD] => 000000
    [L_ERRORCODE0] => 11546
    [L_SHORTMESSAGE0] => Denied
    [L_LONGMESSAGE0] => Profile ID is not valid for this account.  Please resubmit request with the correct profile ID.
    [L_SEVERITYCODE0] => Error
)
