TIMESTAMP=2016%2d05%2d17T12%3a09%3a30Z&CORRELATIONID=71e9e63fc5182&ACK=Failure&VERSION=112%2e0&BUILD=000000&L_ERRORCODE0=10001&L_ERRORCODE1=10751&L_SHORTMESSAGE0=Internal%20Error&L_SHORTMESSAGE1=Invalid%20Data&L_LONGMESSAGE0=Internal%20Error&L_LONGMESSAGE1=There%27s%20an%20error%20with%20this%20transaction%2e%20Please%20enter%20a%20valid%20state%20in%20the%20billing%20address%2e&L_SEVERITYCODE0=Error&L_SEVERITYCODE1=ErrorArray
(
    [TIMESTAMP] => 2016-05-17T12:09:30Z
    [CORRELATIONID] => 71e9e63fc5182
    [ACK] => Failure
    [VERSION] => 112.0
    [BUILD] => 000000
    [L_ERRORCODE0] => 10001
    [L_ERRORCODE1] => 10751
    [L_SHORTMESSAGE0] => Internal Error
    [L_SHORTMESSAGE1] => Invalid Data
    [L_LONGMESSAGE0] => Internal Error
    [L_LONGMESSAGE1] => There's an error with this transaction. Please enter a valid state in the billing address.
    [L_SEVERITYCODE0] => Error
    [L_SEVERITYCODE1] => Error
)
