USER=*****&PWD=*****&VERSION=112.0&BUTTONSOURCE=xTradeHomes&SIGNATURE=*****&METHOD=GetRecurringPaymentsProfileDetails&PROFILEID=I-PVVC5NH7AL6VArray
(
    [USER] => *****
    [PWD] => *****
    [VERSION] => 112.0
    [BUTTONSOURCE] => xTradeHomes
    [SIGNATURE] => *****
    [METHOD] => GetRecurringPaymentsProfileDetails
    [PROFILEID] => I-PVVC5NH7AL6V
)
