PROFILEID=I%2dMYNCETTKTYU2&PROFILESTATUS=PendingProfile&TRANSACTIONID=85E433690P842382K&TIMESTAMP=2016%2d05%2d24T09%3a30%3a17Z&CORRELATIONID=cdf8603d38bb6&ACK=Success&VERSION=112%2e0&BUILD=22204133Array
(
    [PROFILEID] => I-MYNCETTKTYU2
    [PROFILESTATUS] => PendingProfile
    [TRANSACTIONID] => 85E433690P842382K
    [TIMESTAMP] => 2016-05-24T09:30:17Z
    [CORRELATIONID] => cdf8603d38bb6
    [ACK] => Success
    [VERSION] => 112.0
    [BUILD] => 22204133
)
