PROFILEID=I%2dSCPFVWUN6BAM&PROFILESTATUS=PendingProfile&TRANSACTIONID=06929356HM9233155&TIMESTAMP=2016%2d05%2d31T09%3a36%3a32Z&CORRELATIONID=8134555a86cf2&ACK=Success&VERSION=112%2e0&BUILD=22204133Array
(
    [PROFILEID] => I-SCPFVWUN6BAM
    [PROFILESTATUS] => PendingProfile
    [TRANSACTIONID] => 06929356HM9233155
    [TIMESTAMP] => 2016-05-31T09:36:32Z
    [CORRELATIONID] => 8134555a86cf2
    [ACK] => Success
    [VERSION] => 112.0
    [BUILD] => 22204133
)
