TIMESTAMP=2016%2d06%2d07T17%3a05%3a35Z&CORRELATIONID=c101bbe7275be&ACK=Failure&VERSION=112%2e0&BUILD=22204133&L_ERRORCODE0=11586&L_SHORTMESSAGE0=DPRP%20is%20disabled%2e&L_LONGMESSAGE0=DPRP%20is%20disabled%20for%20this%20merchant%2e&L_SEVERITYCODE0=ErrorArray
(
    [TIMESTAMP] => 2016-06-07T17:05:35Z
    [CORRELATIONID] => c101bbe7275be
    [ACK] => Failure
    [VERSION] => 112.0
    [BUILD] => 22204133
    [L_ERRORCODE0] => 11586
    [L_SHORTMESSAGE0] => DPRP is disabled.
    [L_LONGMESSAGE0] => DPRP is disabled for this merchant.
    [L_SEVERITYCODE0] => Error
)
