USER=*****&PWD=*****&VERSION=112.0&BUTTONSOURCE=xTradeHomes&SIGNATURE=*****&METHOD=GetRecurringPaymentsProfileDetails&PROFILEID=CARD-3GH40883TP756320WK5M4INIArray
(
    [USER] => *****
    [PWD] => *****
    [VERSION] => 112.0
    [BUTTONSOURCE] => xTradeHomes
    [SIGNATURE] => *****
    [METHOD] => GetRecurringPaymentsProfileDetails
    [PROFILEID] => CARD-3GH40883TP756320WK5M4INI
)
