USER=*****&PWD=*****&VERSION=112.0&BUTTONSOURCE=xTradeHomes&SIGNATURE=*****&METHOD=GetRecurringPaymentsProfileDetails&PROFILEID=CARD-4PL592848S576730UK5MZZPIArray
(
    [USER] => *****
    [PWD] => *****
    [VERSION] => 112.0
    [BUTTONSOURCE] => xTradeHomes
    [SIGNATURE] => *****
    [METHOD] => GetRecurringPaymentsProfileDetails
    [PROFILEID] => CARD-4PL592848S576730UK5MZZPI
)
